…
## Load Libraries and Import Data

``` r
library("tidyverse")
library("mgcv")
```

``` r
dat <-
   source("r/wrangle_raw_data.R")$value
```

    ## # A tibble: 336 x 28
    ## # Groups:   site, rep, transect, distance, station, mat, mah, mws, mwd [228]
    ##    site  rep   distance station transect dist_stat plant_no `pot_ no` counts_p1
    ##    <fct> <fct> <fct>      <dbl>    <dbl> <chr>        <dbl>     <dbl>     <dbl>
    ##  1 pbc   1     0 m            1        1 0m_1             5         1         1
    ##  2 pbc   1     0 m            1        1 0m_1             5         2         2
    ##  3 pbc   1     0 m            2        4 0m_2             5         3         3
    ##  4 pbc   1     0 m            2        4 0m_2             5         4         5
    ##  5 pbc   1     0 m            3        7 0m_3             5         5         3
    ##  6 pbc   1     0 m            3        7 0m_3             5         6         0
    ##  7 pbc   1     0 m            4       10 0m_4             5         7         2
    ##  8 pbc   1     0 m            4       10 0m_4             5         8         0
    ##  9 pbc   1     10 m           1        1 10m_1            5         9         0
    ## 10 pbc   1     10 m           1        1 10m_1            5        10         1
    ## # ... with 326 more rows, and 19 more variables: counts_p2 <dbl>,
    ## #   counts_p3 <dbl>, counts_p4 <dbl>, counts_p5 <dbl>, mean_count_pot <dbl>,
    ## #   SD_count_pot <dbl>, mat <dbl>, mah <dbl>, minws <dbl>, mws <dbl>,
    ## #   maxws <dbl>, mwd <dbl>, precip <dbl>, ptype <chr>, mdp <dbl>, mrain <dbl>,
    ## #   dist <dbl>, SpEv <fct>, sum_rain <dbl>
…
